\relax 
\providecommand\hyper@newdestlabel[2]{}
\catcode `"\active 
\providecommand\HyperFirstAtBeginDocument{\AtBeginDocument}
\HyperFirstAtBeginDocument{\ifx\hyper@anchor\@undefined
\global\let\oldcontentsline\contentsline
\gdef\contentsline#1#2#3#4{\oldcontentsline{#1}{#2}{#3}}
\global\let\oldnewlabel\newlabel
\gdef\newlabel#1#2{\newlabelxx{#1}#2}
\gdef\newlabelxx#1#2#3#4#5#6{\oldnewlabel{#1}{{#2}{#3}}}
\AtEndDocument{\ifx\hyper@anchor\@undefined
\let\contentsline\oldcontentsline
\let\newlabel\oldnewlabel
\fi}
\fi}
\global\let\hyper@last\relax 
\gdef\HyperFirstAtBeginDocument#1{#1}
\providecommand\HyField@AuxAddToFields[1]{}
\providecommand\HyField@AuxAddToCoFields[2]{}
\select@language{ngerman}
\@writefile{toc}{\select@language{ngerman}}
\@writefile{lof}{\select@language{ngerman}}
\@writefile{lot}{\select@language{ngerman}}
\@writefile{toc}{\contentsline {section}{\numberline {1}Theorie}{1}{section.1}}
\@writefile{toc}{\contentsline {subsection}{\numberline {1.1}Exzitonen}{1}{subsection.1.1}}
\@writefile{toc}{\contentsline {subsection}{\numberline {1.2}Quantenpunkte}{2}{subsection.1.2}}
\@writefile{toc}{\contentsline {subsection}{\numberline {1.3}Energieniveaus in Quantenpunkten und \IeC {\"U}berg\IeC {\"a}nge}{2}{subsection.1.3}}
\@writefile{toc}{\contentsline {section}{\numberline {2}Durchf\IeC {\"u}hrung}{3}{section.2}}
\@writefile{toc}{\contentsline {subsection}{\numberline {2.1}Untersuchte Probe}{3}{subsection.2.1}}
\@writefile{lof}{\contentsline {figure}{\numberline {1}{\ignorespaces Bandkantenverlauf der verwendeten Probe. Quelle: Versuchsanleitung}}{3}{figure.1}}
\newlabel{fig:bandkantenverlauf}{{1}{3}{Bandkantenverlauf der verwendeten Probe. Quelle: Versuchsanleitung}{figure.1}{}}
\@writefile{toc}{\contentsline {subsection}{\numberline {2.2}Versuchsaufbau}{3}{subsection.2.2}}
\@writefile{toc}{\contentsline {subsection}{\numberline {2.3}Kalibrierung}{4}{subsection.2.3}}
\@writefile{toc}{\contentsline {subsection}{\numberline {2.4}Durchf\IeC {\"u}hrung}{4}{subsection.2.4}}
\@writefile{toc}{\contentsline {section}{\numberline {3}Auswertung}{5}{section.3}}
\@writefile{toc}{\contentsline {subsection}{\numberline {3.1}Analyse des Spektrums}{5}{subsection.3.1}}
\@writefile{lof}{\contentsline {figure}{\numberline {2}{\ignorespaces }}{5}{figure.2}}
\newlabel{fig:spektrum}{{2}{5}{}{figure.2}{}}
\@writefile{toc}{\contentsline {subsection}{\numberline {3.2}Analyse des Hintergrundspektrums}{6}{subsection.3.2}}
\@writefile{lof}{\contentsline {figure}{\numberline {3}{\ignorespaces Das Hintergrundspektrum bei nicht abgedunkeltem Raum.}}{6}{figure.3}}
\newlabel{fig:spektrum}{{3}{6}{Das Hintergrundspektrum bei nicht abgedunkeltem Raum}{figure.3}{}}
\@writefile{lof}{\contentsline {figure}{\numberline {4}{\ignorespaces Das Hintergrundspektrum bei abgedunkeltem Raum.}}{7}{figure.4}}
\newlabel{fig:spektrum}{{4}{7}{Das Hintergrundspektrum bei abgedunkeltem Raum}{figure.4}{}}
\@writefile{toc}{\contentsline {subsection}{\numberline {3.3}Variation der Gatespannung}{8}{subsection.3.3}}
\@writefile{lof}{\contentsline {figure}{\numberline {5}{\ignorespaces .}}{8}{figure.5}}
\newlabel{fig:spektrum}{{5}{8}{}{figure.5}{}}
\@writefile{lof}{\contentsline {figure}{\numberline {6}{\ignorespaces .}}{9}{figure.6}}
\newlabel{fig:spektrum}{{6}{9}{}{figure.6}{}}
\@writefile{toc}{\contentsline {subsection}{\numberline {3.4}Variation der Laserleistung}{10}{subsection.3.4}}
\@writefile{lof}{\contentsline {figure}{\numberline {7}{\ignorespaces .}}{10}{figure.7}}
\newlabel{fig:spektrum}{{7}{10}{}{figure.7}{}}
\@writefile{lof}{\contentsline {figure}{\numberline {8}{\ignorespaces .}}{11}{figure.8}}
\newlabel{fig:spektrum}{{8}{11}{}{figure.8}{}}
\@writefile{lof}{\contentsline {figure}{\numberline {9}{\ignorespaces .}}{12}{figure.9}}
\newlabel{fig:spektrum}{{9}{12}{}{figure.9}{}}
