\relax 
\providecommand\hyper@newdestlabel[2]{}
\catcode `"\active 
\providecommand\HyperFirstAtBeginDocument{\AtBeginDocument}
\HyperFirstAtBeginDocument{\ifx\hyper@anchor\@undefined
\global\let\oldcontentsline\contentsline
\gdef\contentsline#1#2#3#4{\oldcontentsline{#1}{#2}{#3}}
\global\let\oldnewlabel\newlabel
\gdef\newlabel#1#2{\newlabelxx{#1}#2}
\gdef\newlabelxx#1#2#3#4#5#6{\oldnewlabel{#1}{{#2}{#3}}}
\AtEndDocument{\ifx\hyper@anchor\@undefined
\let\contentsline\oldcontentsline
\let\newlabel\oldnewlabel
\fi}
\fi}
\global\let\hyper@last\relax 
\gdef\HyperFirstAtBeginDocument#1{#1}
\providecommand\HyField@AuxAddToFields[1]{}
\providecommand\HyField@AuxAddToCoFields[2]{}
\select@language{ngerman}
\@writefile{toc}{\select@language{ngerman}}
\@writefile{lof}{\select@language{ngerman}}
\@writefile{lot}{\select@language{ngerman}}
\@writefile{toc}{\contentsline {section}{\numberline {1}Theoretische Grundlagen}{1}{section.1}}
\@writefile{toc}{\contentsline {subsection}{\numberline {1.1}Klassischer Hall-Effekt}{1}{subsection.1.1}}
\newlabel{ohm}{{1}{1}{Klassischer Hall-Effekt}{equation.1.1}{}}
\newlabel{ne_abl}{{2}{1}{Klassischer Hall-Effekt}{equation.1.2}{}}
\newlabel{beweglichkeiteq}{{3}{1}{Klassischer Hall-Effekt}{equation.1.3}{}}
\newlabel{radius}{{4}{2}{Klassischer Hall-Effekt}{equation.1.4}{}}
\@writefile{toc}{\contentsline {subsection}{\numberline {1.2}Antidots}{2}{subsection.1.2}}
\@writefile{toc}{\contentsline {subsection}{\numberline {1.3}2DEG}{2}{subsection.1.3}}
\@writefile{toc}{\contentsline {subsection}{\numberline {1.4}Energiequantisierung im Magnetfeld}{2}{subsection.1.4}}
\newlabel{nu}{{6}{2}{Energiequantisierung im Magnetfeld}{equation.1.6}{}}
\@writefile{lof}{\contentsline {figure}{\numberline {1}{\ignorespaces Die Zustandsdichte eines 2DEG im Magnetfeld}}{3}{figure.1}}
\newlabel{landau}{{1}{3}{Die Zustandsdichte eines 2DEG im Magnetfeld}{figure.1}{}}
\@writefile{toc}{\contentsline {subsection}{\numberline {1.5}Randkan\IeC {\"a}le}{3}{subsection.1.5}}
\newlabel{minmax}{{8}{4}{Randkanäle}{equation.1.8}{}}
\@writefile{toc}{\contentsline {subsection}{\numberline {1.6}Quanten-Hall-Effekt}{4}{subsection.1.6}}
\newlabel{qhe}{{9}{4}{Quanten-Hall-Effekt}{equation.1.9}{}}
\@writefile{toc}{\contentsline {section}{\numberline {2}Versuch}{4}{section.2}}
\@writefile{toc}{\contentsline {subsection}{\numberline {2.1}Aufbau}{4}{subsection.2.1}}
\@writefile{toc}{\contentsline {subsection}{\numberline {2.2}Durchf\IeC {\"u}hrung}{4}{subsection.2.2}}
\@writefile{toc}{\contentsline {subsection}{\numberline {2.3}Auswertung}{5}{subsection.2.3}}
\@writefile{lof}{\contentsline {figure}{\numberline {2}{\ignorespaces Die Ergebnisse f\IeC {\"u}r die Messung im strukturierten Bereich: Die x-Achse ist proportional zum Magnetfeld, die y-Achse zur Messspannung. Die schwarze (\(\SI {0.2}{\volt \per \centi \metre }\)), orangene (\(\SI {0.2}{\volt \per \centi \metre }\)) und pinke (\(\SI {0.1}{\volt \per \centi \metre }\)) Kurve ist die Querspannung und die rote (\(\SI {0.1}{\volt \per \centi \metre }\)), violette (\(\SI {0.5}{\milli \volt \per \centi \metre }\)) und blaue (\(\SI {5}{\milli \volt \per \centi \metre }\)) die L\IeC {\"a}ngsspannung mit der jeweiligen Gate-Spannung \(\SI {-0.15}{\volt }\), \(\SI {0}{\volt }\) und \(\SI {0.5}{\volt }\). Die x-Empfindlichkeit betrug \(\SI {2}{\milli \volt }/\SI {}{\centi \metre }\). Die rote Kurve geh\IeC {\"o}rt zu einer fehlerhaften Messung und wurde ignoriert.}}{5}{figure.2}}
\newlabel{spektrum_174}{{2}{5}{Die Ergebnisse für die Messung im strukturierten Bereich: Die x-Achse ist proportional zum Magnetfeld, die y-Achse zur Messspannung. Die schwarze (\(\SI {0.2}{\volt \per \centi \metre }\)), orangene (\(\SI {0.2}{\volt \per \centi \metre }\)) und pinke (\(\SI {0.1}{\volt \per \centi \metre }\)) Kurve ist die Querspannung und die rote (\(\SI {0.1}{\volt \per \centi \metre }\)), violette (\(\SI {0.5}{\milli \volt \per \centi \metre }\)) und blaue (\(\SI {5}{\milli \volt \per \centi \metre }\)) die Längsspannung mit der jeweiligen Gate-Spannung \(\SI {-0.15}{\volt }\), \(\SI {0}{\volt }\) und \(\SI {0.5}{\volt }\). Die x-Empfindlichkeit betrug \(\SI {2}{\milli \volt }/\SI {}{\centi \metre }\). Die rote Kurve gehört zu einer fehlerhaften Messung und wurde ignoriert}{figure.2}{}}
\@writefile{lof}{\contentsline {figure}{\numberline {3}{\ignorespaces Die Ergebnisse f\IeC {\"u}r die Messung im unstrukturierten Bereich: Die x-Achse ist proportional zum Magnetfeld, die y-Achse zur Messspannung. Die blaue (\(\SI {0.2}{\volt \per \centi \metre }\)), schwarze (\(\SI {0.1}{\volt \per \centi \metre }\)) und gr\IeC {\"u}ne (\(\SI {0.1}{\volt \per \centi \metre }\)) Kurve ist die Querspannung und die rote (\(\SI {0.01}{\volt \per \centi \metre }\)), violette (\(\SI {5}{\milli \volt \per \centi \metre }\)) und pinke (\(\SI {5}{\milli \volt \per \centi \metre }\)) die L\IeC {\"a}ngsspannung mit der jeweiligen Gate-Spannung \(\SI {-0.15}{\volt }\), \(\SI {0}{\volt }\) und \(\SI {0.5}{\volt }\). Die x-Empfindlichkeit betrug \(\SI {2}{\milli \volt }/\SI {}{\centi \metre }\). Die untere violette und rote Kurve geh\IeC {\"o}ren zu fehlerhaften Messungen und wurden ignoriert.}}{6}{figure.3}}
\newlabel{spektrum_174}{{3}{6}{Die Ergebnisse für die Messung im unstrukturierten Bereich: Die x-Achse ist proportional zum Magnetfeld, die y-Achse zur Messspannung. Die blaue (\(\SI {0.2}{\volt \per \centi \metre }\)), schwarze (\(\SI {0.1}{\volt \per \centi \metre }\)) und grüne (\(\SI {0.1}{\volt \per \centi \metre }\)) Kurve ist die Querspannung und die rote (\(\SI {0.01}{\volt \per \centi \metre }\)), violette (\(\SI {5}{\milli \volt \per \centi \metre }\)) und pinke (\(\SI {5}{\milli \volt \per \centi \metre }\)) die Längsspannung mit der jeweiligen Gate-Spannung \(\SI {-0.15}{\volt }\), \(\SI {0}{\volt }\) und \(\SI {0.5}{\volt }\). Die x-Empfindlichkeit betrug \(\SI {2}{\milli \volt }/\SI {}{\centi \metre }\). Die untere violette und rote Kurve gehören zu fehlerhaften Messungen und wurden ignoriert}{figure.3}{}}
\@writefile{lof}{\contentsline {figure}{\numberline {4}{\ignorespaces Detailaufnahme der L\IeC {\"a}ngsspannung im strukturierten Bereich: Gr\IeC {\"u}n: \(\SI {5}{\milli \volt \per \centi \metre }, V_g=\SI {-0.15}{\volt }\); Schwarz: \(\SI {2}{\milli \volt \per \centi \metre }, V_g=\SI {0}{\volt }\); Blau: \(\SI {5}{\milli \volt \per \centi \metre }, V_g=\SI {0.5}{\volt }\). Die x-Empfindlichkeit betrug \(\SI {0.5}{\milli \volt }/\SI {}{\centi \metre }\).}}{7}{figure.4}}
\newlabel{spektrum_174}{{4}{7}{Detailaufnahme der Längsspannung im strukturierten Bereich: Grün: \(\SI {5}{\milli \volt \per \centi \metre }, V_g=\SI {-0.15}{\volt }\); Schwarz: \(\SI {2}{\milli \volt \per \centi \metre }, V_g=\SI {0}{\volt }\); Blau: \(\SI {5}{\milli \volt \per \centi \metre }, V_g=\SI {0.5}{\volt }\). Die x-Empfindlichkeit betrug \(\SI {0.5}{\milli \volt }/\SI {}{\centi \metre }\)}{figure.4}{}}
\@writefile{lof}{\contentsline {figure}{\numberline {5}{\ignorespaces Die Abh\IeC {\"a}ngigkeit der Querspannung vom Magnetfeld. Gestrichelte Kurven sind Messungen im unstrukturierten Bereich, durchgezogene Linien im strukturierten Bereich.}}{8}{figure.5}}
\newlabel{quer}{{5}{8}{Die Abhängigkeit der Querspannung vom Magnetfeld. Gestrichelte Kurven sind Messungen im unstrukturierten Bereich, durchgezogene Linien im strukturierten Bereich}{figure.5}{}}
\@writefile{lof}{\contentsline {figure}{\numberline {6}{\ignorespaces Die Abh\IeC {\"a}ngigkeit der L\IeC {\"a}ngsspannung vom Magnetfeld. Gestrichelte Kurven sind Messungen im unstrukturierten Bereich, durchgezogene Linien im strukturierten Bereich.}}{9}{figure.6}}
\newlabel{laengs}{{6}{9}{Die Abhängigkeit der Längsspannung vom Magnetfeld. Gestrichelte Kurven sind Messungen im unstrukturierten Bereich, durchgezogene Linien im strukturierten Bereich}{figure.6}{}}
\@writefile{lof}{\contentsline {figure}{\numberline {7}{\ignorespaces Detailmessung der L\IeC {\"a}ngsspannung im strukturierten Bereich.}}{10}{figure.7}}
\newlabel{detail}{{7}{10}{Detailmessung der Längsspannung im strukturierten Bereich}{figure.7}{}}
\@writefile{toc}{\contentsline {subsubsection}{\numberline {2.3.1}Fehlerabsch\IeC {\"a}tzung}{10}{subsubsection.2.3.1}}
\@writefile{toc}{\contentsline {subsubsection}{\numberline {2.3.2}Ermittlung der Ladungstr\IeC {\"a}gerdichte mittels Betrachtung der Hallspannung}{11}{subsubsection.2.3.2}}
\@writefile{toc}{\contentsline {subsubsection}{\numberline {2.3.3}F\IeC {\"u}llfaktoren}{12}{subsubsection.2.3.3}}
\@writefile{lof}{\contentsline {figure}{\numberline {8}{\ignorespaces F\IeC {\"u}llfaktor im strukturierten Bereich.}}{14}{figure.8}}
\newlabel{fuellfaktors}{{8}{14}{Füllfaktor im strukturierten Bereich}{figure.8}{}}
\@writefile{lof}{\contentsline {figure}{\numberline {9}{\ignorespaces F\IeC {\"u}llfaktor im unstrukturierten Bereich.}}{15}{figure.9}}
\newlabel{fuellfaktorus}{{9}{15}{Füllfaktor im unstrukturierten Bereich}{figure.9}{}}
\@writefile{lof}{\contentsline {figure}{\numberline {10}{\ignorespaces F\IeC {\"u}llfaktor im strukturierten Bereich (korrigiertes Magnetfeld).}}{16}{figure.10}}
\newlabel{fuellfaktorskorr}{{10}{16}{Füllfaktor im strukturierten Bereich (korrigiertes Magnetfeld)}{figure.10}{}}
\@writefile{lof}{\contentsline {figure}{\numberline {11}{\ignorespaces F\IeC {\"u}llfaktor im unstrukturierten Bereich (korrigiertes Magnetfeld).}}{17}{figure.11}}
\newlabel{fuellfaktoruskorr}{{11}{17}{Füllfaktor im unstrukturierten Bereich (korrigiertes Magnetfeld)}{figure.11}{}}
\@writefile{toc}{\contentsline {subsubsection}{\numberline {2.3.4}Ladungstr\IeC {\"a}gerdichte aus SdH-Oszillationen}{17}{subsubsection.2.3.4}}
\@writefile{lof}{\contentsline {figure}{\numberline {12}{\ignorespaces Punkte stehen f\IeC {\"u}r den strukturierten Bereich, w\IeC {\"a}hrend Sterne f\IeC {\"u}r den unstrukturierten Bereich stehen.}}{19}{figure.12}}
\newlabel{ne_fuell}{{12}{19}{Punkte stehen für den strukturierten Bereich, während Sterne für den unstrukturierten Bereich stehen}{figure.12}{}}
\@writefile{toc}{\contentsline {subsubsection}{\numberline {2.3.5}Ermittlung der Beweglichkeit}{20}{subsubsection.2.3.5}}
\@writefile{lof}{\contentsline {figure}{\numberline {13}{\ignorespaces Werte f\IeC {\"u}r den unstrukturierten Bereich sind in rot, Werte f\IeC {\"u}r den strukturierten Bereich in blau.}}{20}{figure.13}}
\newlabel{beweglichkeit}{{13}{20}{Werte für den unstrukturierten Bereich sind in rot, Werte für den strukturierten Bereich in blau}{figure.13}{}}
\@writefile{toc}{\contentsline {subsubsection}{\numberline {2.3.6}Vergleich der Werte f\IeC {\"u}r die Ladungstr\IeC {\"a}gerdichte}{22}{subsubsection.2.3.6}}
\@writefile{lof}{\contentsline {figure}{\numberline {14}{\ignorespaces Vergleich der Ladungstr\IeC {\"a}gerdichten im strukturierten Bereich. Rote Punkte symbolisieren Werte, die mittels der ersten Methode ermittelt wurden, blaue Sterne solche, die mit der zweiten Methode gefunden wurden.}}{22}{figure.14}}
\newlabel{ne_vergleich_s}{{14}{22}{Vergleich der Ladungsträgerdichten im strukturierten Bereich. Rote Punkte symbolisieren Werte, die mittels der ersten Methode ermittelt wurden, blaue Sterne solche, die mit der zweiten Methode gefunden wurden}{figure.14}{}}
\@writefile{lof}{\contentsline {figure}{\numberline {15}{\ignorespaces Vergleich der Ladungstr\IeC {\"a}gerdichten im unstrukturierten Bereich. Rote Punkte symbolisieren Werte, die mittels der ersten Methode ermittelt wurden, blaue Sterne solche, die mit der zweiten Methode gefunden wurden.}}{23}{figure.15}}
\newlabel{ne_vergleich_us}{{15}{23}{Vergleich der Ladungsträgerdichten im unstrukturierten Bereich. Rote Punkte symbolisieren Werte, die mittels der ersten Methode ermittelt wurden, blaue Sterne solche, die mit der zweiten Methode gefunden wurden}{figure.15}{}}
\@writefile{lof}{\contentsline {figure}{\numberline {16}{\ignorespaces Vergleich der Ladungstr\IeC {\"a}gerdichten im strukturierten Bereich bei korrigiertem Magnetfeld. Rote Punkte symbolisieren Werte, die mittels der ersten Methode ermittelt wurden, blaue Sterne solche, die mit der zweiten Methode gefunden wurden.}}{24}{figure.16}}
\newlabel{ne_vergleich_s_korr}{{16}{24}{Vergleich der Ladungsträgerdichten im strukturierten Bereich bei korrigiertem Magnetfeld. Rote Punkte symbolisieren Werte, die mittels der ersten Methode ermittelt wurden, blaue Sterne solche, die mit der zweiten Methode gefunden wurden}{figure.16}{}}
\@writefile{lof}{\contentsline {figure}{\numberline {17}{\ignorespaces Vergleich der Ladungstr\IeC {\"a}gerdichten im unstrukturierten Bereich bei korrigiertem Magnetfeld. Rote Punkte symbolisieren Werte, die mittels der ersten Methode ermittelt wurden, blaue Sterne solche, die mit der zweiten Methode gefunden wurden.}}{25}{figure.17}}
\newlabel{ne_vergleich_us_korr}{{17}{25}{Vergleich der Ladungsträgerdichten im unstrukturierten Bereich bei korrigiertem Magnetfeld. Rote Punkte symbolisieren Werte, die mittels der ersten Methode ermittelt wurden, blaue Sterne solche, die mit der zweiten Methode gefunden wurden}{figure.17}{}}
\@writefile{toc}{\contentsline {section}{\numberline {3}Detailuntersuchung des strukturierten Bereichs}{25}{section.3}}
\@writefile{toc}{\contentsline {subsection}{\numberline {3.1}Identifizierung der Elektronenbahnen im Antidotgitter}{25}{subsection.3.1}}
\@writefile{lof}{\contentsline {figure}{\numberline {18}{\ignorespaces Beobachtete Elektronentrajektorien}}{27}{figure.18}}
\newlabel{bahnen}{{18}{27}{Beobachtete Elektronentrajektorien}{figure.18}{}}
\@writefile{toc}{\contentsline {subsection}{\numberline {3.2}Dominanz der Runaway-Trajektorien}{28}{subsection.3.2}}
\@writefile{toc}{\contentsline {subsection}{\numberline {3.3}Abh\IeC {\"a}ngigkeit der Elektronenbahnen von der Gatterspannung}{28}{subsection.3.3}}
